{
  "apps": {
    "api-communication": "ignore",
    "api-data-service": "ignore",
    "api-loan-app": "ignore",
    "api-verification": "ignore",
    "auth-server": "ignore",
    "auth-server-collections": "ignore",
    "auth-server-operations": "ignore",
    "auth-server-stores": "ignore",
    "auth-server-zeus-admin": "ignore",
    "buscar": "ignore",
    "ccos": "ignore",
    "cis": "ignore",
    "client-service": "ignore",
    "collection-service": "ignore",
    "cts": "b83",
    "cts-datalake": "b83",
    "ccas": "ignore",
    "db-updater": "ignore",
    "docmosis": "ignore",
    "documentos": "ignore",
    "documents-engine": "ignore",
    "egeon": "ignore",
    "feature-service": "ignore",
    "financial-account-service": "ignore",
    "fraud": "ignore",
    "gateway": "ignore",
    "grafana": "ignore",
    "lead-source-system": "ignore",
    "mfh-service": "ignore",
    "mobileapp": "ignore",
    "movil": "ignore",
    "ng-backoffice": "ignore",
    "ng-ccos": "ignore",
    "ng-collections": "ignore",
    "ng-ccas": "ignore",
    "ng-kiosk": "ignore",
    "ng-operations": "ignore",
    "ng-stores": "ignore",
    "ng-zeus-admin": "ignore",
    "payment-service": "ignore",
    "pf": "ignore",
    "pf-api": "ignore",
    "presentacion": "ignore",
    "pricing-engine": "ignore",
    "progressfin-services": "ignore",
    "reportes": "ignore",
    "risk": "ignore",
    "self-service": "ignore",
    "sip": "ignore",
    "sip-frontend": "ignore",
    "solr": "ignore",
    "template-engine": "ignore",
    "user-service": "ignore",
    "verification-service": "ignore",
    "appdist": "ignore",
    "batch": "ignore",
    "communication-jobs": "ignore",
    "jobs-folder": "ignore",
    "lss-lead-import": "ignore",
    "risk-aggregate-producer": "ignore",
    "customer-preference": "ignore"
  },
  "db": {
    "bootstrap": "",
    "migrate": ""
  },
  "meta": {
    "release_manager": "cole.busby@oportun.com",
    "release_name": "COMINGSOON",
    "target_env": "PROD-DL-1"
  }
}

