{
  "apps": {
    "api-communication": "b1846",
    "api-data-service": "b1761",
    "api-data-gen": "b157",
    "api-loan-app": "b4115",
    "api-verification": "b3069",
    "auth-server": "b35",
    "auth-server-collections": "b35",
    "auth-server-operations": "b35",
    "auth-server-stores": "b35",
    "auth-server-zeus-admin": "b35",
    "buscar": "b3",
    "ccos": "b449",
    "cis": "b1398",
    "client-service": "b936",
    "collection-service": "b800",
    "cts": "b86",
    "cts-datalake": "b<html>\n<head>\n<meta http-equiv=\"Content-Type\" content=\"text/html;charset=utf-8\"/>\n<title>Error 404 Not Found</title>\n</head>\n<body><h2>HTTP ERROR 404</h2>\n<p>Problem accessing /job/cts-datalake/lastStableBuild/buildNumber. Reason:\n<pre> Not Found</pre></p><hr><a href=\"http://eclipse.org/jetty\">Powered by Jetty:// 9.4.z-SNAPSHOT</a><hr/>\n\n</body>\n</html>",
    "customer-preference": "b89",
    "ccas": "b272",
    "db-updater": "b189",
    "docmosis": "b431",
    "documentos": "b1671",
    "documents-engine": "b3276",
    "egeon": "b155",
    "feature-service": "b101",
    "financial-account-service": "b126",
    "financial-engine": "b20",
    "fraud": "b2394",
    "gateway": "b270",
    "grafana": "b1",
    "lead-source-system": "b1479",
    "mfh-service": "b75",
    "mobileapp": "b105",
    "movil": "b1291",
    "ng-backoffice": "b12",
    "ng-ccos": "b79",
    "ng-collections": "b311",
    "ng-ccas": "b53",
    "ng-kiosk": "b19",
    "ng-operations": "b437",
    "ng-stores": "b471",
    "ng-zeus-admin": "b128",
    "partner-apply": "b39",
    "payment-service": "b797",
    "pf": "b4893",
    "pf-api": "b4892",
    "presentacion": "b74",
    "pricing-engine": "b398",
    "progressfin-services": "b101",
    "prom-aggregation-gateway": "b1",
    "reportes": "b206",
    "risk": "b3038",
    "scylladb": "b<html>\n<head>\n<meta http-equiv=\"Content-Type\" content=\"text/html;charset=utf-8\"/>\n<title>Error 404 Not Found</title>\n</head>\n<body><h2>HTTP ERROR 404</h2>\n<p>Problem accessing /job/scylladb/lastStableBuild/buildNumber. Reason:\n<pre> Not Found</pre></p><hr><a href=\"http://eclipse.org/jetty\">Powered by Jetty:// 9.4.z-SNAPSHOT</a><hr/>\n\n</body>\n</html>",
    "scylladbcluster": "b<html>\n<head>\n<meta http-equiv=\"Content-Type\" content=\"text/html;charset=utf-8\"/>\n<title>Error 404 Not Found</title>\n</head>\n<body><h2>HTTP ERROR 404</h2>\n<p>Problem accessing /job/scylladbcluster/lastStableBuild/buildNumber. Reason:\n<pre> Not Found</pre></p><hr><a href=\"http://eclipse.org/jetty\">Powered by Jetty:// 9.4.z-SNAPSHOT</a><hr/>\n\n</body>\n</html>",
    "self-service": "b91",
    "sip": "b865",
    "sip-frontend": "b<html>\n<head>\n<meta http-equiv=\"Content-Type\" content=\"text/html;charset=utf-8\"/>\n<title>Error 404 Not Found</title>\n</head>\n<body><h2>HTTP ERROR 404</h2>\n<p>Problem accessing /job/sip-frontend/lastStableBuild/buildNumber. Reason:\n<pre> Not Found</pre></p><hr><a href=\"http://eclipse.org/jetty\">Powered by Jetty:// 9.4.z-SNAPSHOT</a><hr/>\n\n</body>\n</html>",
    "solr": "b1",
    "template-engine": "b75",
    "user-service": "b660",
    "verification-service": "b385",
    "workflow-engine": "b64",
    "ucp-email-unsubscribe": "b10",
    "ui-data-gen": "b62",
    "appdist": "b1754",
    "batch": "b1605",
    "communication-jobs": "b87",
    "jobs-folder": "b810",
    "lss-lead-import": "b300",
    "risk-aggregate-producer": "b381"
  },
  "db": {
    "bootstrap": "",
    "migrate": ""
  },
  "meta": {
    "release_manager": "amitabh.mathur@oportun.com",
    "release_name": "",
    "target_env": "PROD3"
  }
}