{
  "apps": {
    "api-communication": "b1905",
    "api-data-service": "b1812",
    "api-data-gen": "b160",
    "api-loan-app": "b4262",
    "api-verification": "b3123",
    "auth-server-collections": "b36",
    "auth-server-operations": "b36",
    "auth-server-stores": "b36",
    "auth-server-partners": "b2",
    "auth-server-zeus-admin": "b36",
    "buscar": "b3",
    "ccos": "b491",
    "cis": "b1417",
    "client-service": "b952",
    "collection-service": "b854",
    "cts": "b87",
    "cts-datalake": "b<html>\n<head>\n<meta http-equiv=\"Content-Type\" content=\"text/html;charset=utf-8\"/>\n<title>Error 404 Not Found</title>\n</head>\n<body><h2>HTTP ERROR 404</h2>\n<p>Problem accessing /job/cts-datalake/lastStableBuild/buildNumber. Reason:\n<pre> Not Found</pre></p><hr><a href=\"http://eclipse.org/jetty\">Powered by Jetty:// 9.4.z-SNAPSHOT</a><hr/>\n\n</body>\n</html>",
    "customer-preference": "b117",
    "ccas": "b286",
    "db-updater": "b198",
    "docmosis": "b431",
    "documentos": "b1671",
    "documents-engine": "b3367",
    "egeon": "b160",
    "feature-service": "b104",
    "financial-account-service": "b130",
    "financial-engine": "b25",
    "fraud": "b2495",
    "gateway": "b270",
    "grafana": "b1",
    "lead-source-system": "b1493",
    "mfh-service": "b76",
    "mobileapp": "b112",
    "movil": "b1382",
    "money-movement-service": "b21",
    "ng-backoffice": "b12",
    "ng-ccos": "b91",
    "ng-collections": "b336",
    "ng-ccas": "b56",
    "ng-kiosk": "b19",
    "ng-operations": "b502",
    "ng-stores": "b538",
    "ng-partner-stores": "b21",
    "ng-zeus-admin": "b137",
    "payment-service": "b833",
    "pf": "b4931",
    "pf-api": "b4930",
    "presentacion": "b74",
    "pricing-engine": "b560",
    "progressfin-services": "b101",
    "prom-aggregation-gateway": "b1",
    "reportes": "b206",
    "risk": "b3091",
    "scylladb": "b<html>\n<head>\n<meta http-equiv=\"Content-Type\" content=\"text/html;charset=utf-8\"/>\n<title>Error 404 Not Found</title>\n</head>\n<body><h2>HTTP ERROR 404</h2>\n<p>Problem accessing /job/scylladb/lastStableBuild/buildNumber. Reason:\n<pre> Not Found</pre></p><hr><a href=\"http://eclipse.org/jetty\">Powered by Jetty:// 9.4.z-SNAPSHOT</a><hr/>\n\n</body>\n</html>",
    "scylladbcluster": "b<html>\n<head>\n<meta http-equiv=\"Content-Type\" content=\"text/html;charset=utf-8\"/>\n<title>Error 404 Not Found</title>\n</head>\n<body><h2>HTTP ERROR 404</h2>\n<p>Problem accessing /job/scylladbcluster/lastStableBuild/buildNumber. Reason:\n<pre> Not Found</pre></p><hr><a href=\"http://eclipse.org/jetty\">Powered by Jetty:// 9.4.z-SNAPSHOT</a><hr/>\n\n</body>\n</html>",
    "self-service": "b91",
    "sip": "b865",
    "sip-frontend": "b865",
    "solr": "b1",
    "template-engine": "b75",
    "user-service": "b688",
    "verification-service": "b405",
    "workflow-engine": "b64",
    "ucp-email-unsubscribe": "b10",
    "ui-data-gen": "b63",
    "appdist": "b1786",
    "batch": "b1658",
    "communication-jobs": "b87",
    "jobs-folder": "b841",
    "lss-lead-import": "b300",
    "risk-aggregate-producer": "b393"
  },
  "db": {
    "bootstrap": "",
    "migrate": ""
  },
  "meta": {
    "release_manager": "",
    "release_name": "",
    "target_env": "QA-10"
  }
}
