{
  "meta": {
    "release_manager": "",
    "release_name": "RC_v20.39",
    "target_env": "QA12"
  },
  "apps": {
    "api-communication": "pipeline-b7487",
    "api-data-service": "pipeline-b4442",
    "api-data-service-jobs": "b1747",
    "api-loan-app": "b4226",
    "api-verification": "b3113",
    "appdist": "b1750",
    "auth-server": "ignore",
    "auth-server-collections": "b35",
    "auth-server-operations": "b35",
    "auth-server-partners": "ignore",
    "auth-server-stores": "b35",
    "auth-server-zeus-admin": "b35",
    "batch": "b1599",
    "ccas": "pipeline-b11273",
    "ccos": "b482",
    "ccos-jobs": "b443",
    "cis": "b1391",
    "client-service": "b929",
    "client-service-rds": "ignore",
    "collection-service": "b784",
    "communication-jobs": "b1836",
    "customer-preference": "b89",
    "cts": "b87",
    "cts-jobs": "b85",
    "cts-rds": "ignore",
    "db-updater": "b181",
    "docmosis": "b432",
    "documentos": "b1671",
    "documents-engine": "b3342",
    "documents-engine-jobs": "b3258",
    "egeon": "b153",
    "feature-service": "b100",
    "financial-account-service": "b127",
    "financial-engine": "b17",
    "fraud": "b2470",
    "gateway": "b267",
    "jobs-folder": "b806",
    "lead-source-system": "b1489",
    "lss-lead-import": "ignore",
    "mfh-service": "b76",
    "mobileapp": "b104",
    "movil": "b1363",
    "ng-backoffice": "b12",
    "ng-ccas": "b52",
    "ng-ccos": "b90",
    "ng-collections": "b310",
    "ng-kiosk": "b18",
    "ng-operations": "b429",
    "ng-stores": "b468",
    "ng-partner-stores": "ignore",
    "ng-zeus-admin": "b127",
    "payment-service": "b779",
    "pf": "b4876",
    "pf-api": "b4876",
    "presentacion": "b74",
    "pricing-engine": "b384",
    "pricing-engine-rds": "ignore",
    "progressfin-services": "b100",
    "reportes": "b206",
    "risk": "pipeline-b8374",
    "risk-aggregate-producer": "b375",
    "self-service": "b91",
    "sip": "ignore",
    "sip-frontend": "ignore",
    "template-engine": "b75",
    "user-service": "b655",
    "verification-service": "b400",
    "ucp-email-unsubscribe": "b10",
    "workflow-engine": "b64",
    "zeus-cts-redis": "ignore",
    "zeus-mysql-rds": "ignore",
    "zeus-redis": "ignore",
    "zeus-shibd": "ignore",
    "cts-datalake": "b87"
  },
  "db": {
    "migrate": [
      "beachfront_channel",
      "beachfront_client",
      "beachfront_documents_handler",
      "beachfront_foundation",
      "beachfront_loan_application",
      "beachfront_notification",
      "checkdeposit",
      "communication",
      "financiero",
      "lead_source",
      "operation",
      "pagos",
      "risk",
      "servicios",
      "shibboleth",
      "sip",
      "tarjeta",
      "digital_marketing"
    ],
    "bootstrap": [
      "beachfront_documents_handler",
      "beachfront_loan_application",
      "checkdeposit",
      "collection",
      "communication",
      "financiero",
      "operation",
      "pagos",
      "pfdomain",
      "risk",
      "servicios",
      "sip",
      "tarjeta",
      "digital_marketing"
    ]
  }
}
