{
  "apps": {
    "api-communication": "b1387",
    "api-data-service": "b1377",
    "api-loan-app": "b3289",
    "api-verification": "b2638",
    "auth-server-collections": "b33",
    "auth-server-operations": "b33",
    "auth-server-stores": "b33",
    "auth-server-zeus-admin": "b33",
    "buscar": "b3",
    "ccos": "b84",
    "cis": "b1181",
    "client-service": "b654",
    "collection-service": "b457",
    "cts": "b76",
    "ccas": "b63",
    "db-updater": "b51",
    "docmosis": "b431",
    "documentos": "b1671",
    "documents-engine": "b2736",
    "egeon": "b60",
    "financial-account-service": "ignore",
    "fraud": "b1734",
    "gateway": "b270",
    "lead-source-system": "b1246",
    "mfh-service": "b13",
    "mobileapp": "b78",
    "movil": "b1092",
    "ng-backoffice": "ignore",
    "ng-ccos": "b28",
    "ng-collections": "b211",
    "ng-ccas": "b22",
    "ng-kiosk": "b19",
    "ng-operations": "b259",
    "ng-stores": "b313",
    "ng-zeus-admin": "b84",
    "payment-service": "b433",
    "pf": "b4705",
    "pf-api": "b4705",
    "presentacion": "b74",
    "pricing-engine": "b137",
    "progressfin-services": "b101",
    "reportes": "b206",
    "risk": "b2550",
    "self-service": "b88",
    "sip": "b865",
    "sip-frontend": "b865",
    "solr": "b1",
    "template-engine": "b10",
    "user-service": "b327",
    "verification-service": "b126",
    "appdist": "b1587",
    "batch": "b1235",
    "communication-jobs": "b87",
    "jobs-folder": "b653",
    "lss-lead-import": "b300",
    "risk-aggregate-producer": "b169"
  },
  "db": {
    "bootstrap": "",
    "migrate": ""
  },
  "meta": {
    "release_manager": "",
    "release_name": "",
    "target_env": "QA-4"
  }
}
