{
  "apps": {
    "api-communication": "b1925",
    "api-data-service": "b1829",
    "api-data-gen": "b160",
    "api-loan-app": "b4314",
    "api-verification": "b3136",
    "auth-server-collections": "b42",
    "auth-server-operations": "b42",
    "auth-server-stores": "b42",
    "auth-server-partners": "b42",
    "auth-server-zeus-admin": "b42",
    "buscar": "b3",
    "ccos": "b502",
    "cis": "b1421",
    "client-service": "b958",
    "collection-service": "b865",
    "cts": "b89",
    "cts-datalake": "b<html>\n<head>\n<meta http-equiv=\"Content-Type\" content=\"text/html;charset=utf-8\"/>\n<title>Error 404 Not Found</title>\n</head>\n<body><h2>HTTP ERROR 404</h2>\n<p>Problem accessing /job/cts-datalake/lastStableBuild/buildNumber. Reason:\n<pre> Not Found</pre></p><hr><a href=\"http://eclipse.org/jetty\">Powered by Jetty:// 9.4.z-SNAPSHOT</a><hr/>\n\n</body>\n</html>",
    "customer-preference": "b121",
    "ccas": "b294",
    "db-updater": "b198",
    "docmosis": "b431",
    "documentos": "b1671",
    "documents-engine": "b3397",
    "egeon": "b164",
    "feature-service": "b108",
    "financial-account-service": "b132",
    "financial-engine": "b29",
    "fraud": "b2527",
    "gateway": "b270",
    "grafana": "b1",
    "lead-source-system": "b1498",
    "mfh-service": "b79",
    "mobileapp": "b113",
    "movil": "b1396",
    "money-movement-service": "b23",
    "ng-backoffice": "b12",
    "ng-ccos": "b95",
    "ng-collections": "b347",
    "ng-ccas": "b62",
    "ng-kiosk": "b24",
    "ng-operations": "b517",
    "ng-stores": "b550",
    "ng-partner-stores": "b25",
    "ng-zeus-admin": "b144",
    "payment-service": "b845",
    "pf": "b4939",
    "pf-api": "b4939",
    "presentacion": "b74",
    "pricing-engine": "b575",
    "progressfin-services": "b101",
    "prom-aggregation-gateway": "b1",
    "qa-data-service": "b10",
    "reportes": "b206",
    "risk": "b3118",
    "scylladb": "b<html>\n<head>\n<meta http-equiv=\"Content-Type\" content=\"text/html;charset=utf-8\"/>\n<title>Error 404 Not Found</title>\n</head>\n<body><h2>HTTP ERROR 404</h2>\n<p>Problem accessing /job/scylladb/lastStableBuild/buildNumber. Reason:\n<pre> Not Found</pre></p><hr><a href=\"http://eclipse.org/jetty\">Powered by Jetty:// 9.4.z-SNAPSHOT</a><hr/>\n\n</body>\n</html>",
    "scylladbcluster": "b<html>\n<head>\n<meta http-equiv=\"Content-Type\" content=\"text/html;charset=utf-8\"/>\n<title>Error 404 Not Found</title>\n</head>\n<body><h2>HTTP ERROR 404</h2>\n<p>Problem accessing /job/scylladbcluster/lastStableBuild/buildNumber. Reason:\n<pre> Not Found</pre></p><hr><a href=\"http://eclipse.org/jetty\">Powered by Jetty:// 9.4.z-SNAPSHOT</a><hr/>\n\n</body>\n</html>",
    "self-service": "b91",
    "sip": "b865",
    "sip-frontend": "b865",
    "solr": "b1",
    "template-engine": "b80",
    "user-service": "b704",
    "verification-service": "b411",
    "workflow-engine": "b64",
    "ucp-email-unsubscribe": "b10",
    "ui-data-gen": "b63",
    "appdist": "b1792",
    "batch": "b1664",
    "communication-jobs": "b87",
    "jobs-folder": "b849",
    "lss-lead-import": "b300",
    "risk-aggregate-producer": "b399"
  },
  "db": {
    "bootstrap": "",
    "migrate": ""
  },
  "meta": {
    "release_manager": "",
    "release_name": "",
    "target_env": "QA-5"
  }
}
