{
  "apps": {
    "api-communication": "b1925",
    "api-data-service": "b1829",
    "api-loan-app": "b4300",
    "api-verification": "b3136",
    "appdist": "b1772",
    "auth-server": "b37",
    "auth-server-collections": "b40",
    "auth-server-operations": "b35",
    "auth-server-partners": "b42",
    "auth-server-stores": "b40",
    "auth-server-zeus-admin": "b40",
    "batch": "b1645",
    "buscar": "b3",
    "ccas": "b294",
    "ccos": "b501",
    "cis": "b1421",
    "client-service": "b958",
    "collection-service": "b865",
    "communication-jobs": "b1875",
    "cts": "b89",
    "cts-datalake": "b89",
    "cts-jobs": "b86",
    "customer-preference": "b121",
    "db-updater": "b193",
    "docmosis": "b431",
    "documentos": "b1671",
    "documents-engine": "b3397",
    "documents-engine-jobs": "b3321",
    "egeon": "b164",
    "feature-service": "b108",
    "financial-account-service": "b131",
    "financial-engine": "b29",
    "fraud": "b2527",
    "gateway": "b267",
    "grafana": "b1",
    "jobs-folder": "b831",
    "lead-source-system": "b1498",
    "lss-lead-import": "b1488",
    "mfh-service": "b79",
    "mobileapp": "b113",
    "money-movement-service": "b23",
    "movil": "b1395",
    "ng-backoffice": "b12",
    "ng-ccas": "b62",
    "ng-ccos": "b95",
    "ng-collections": "b347",
    "ng-kiosk": "b24",
    "ng-operations": "b517",
    "ng-partner-stores": "b25",
    "ng-stores": "b550",
    "ng-zeus-admin": "b140",
    "payment-service": "b845",
    "pf": "b4939",
    "pf-api": "b4939",
    "presentacion": "b74",
    "pricing-engine": "b575",
    "progressfin-services": "b101",
    "prom-aggregation-gateway": "b1",
    "reportes": "b206",
    "risk": "b3118",
    "risk-aggregate-producer": "b388",
    "scylladb": "ignore",
    "scylladbcluster": "ignore",
    "self-service": "b91",
    "sip": "b865",
    "sip-frontend": "b865",
    "solr": "b1",
    "template-engine": "b80",
    "ucp-email-unsubscribe": "b10",
    "user-service": "b704",
    "verification-service": "b411",
    "workflow-engine": "b64"
  },
  "db": {
    "bootstrap": [],
    "migrate": []
  },
  "meta": {
    "release_manager": "amitabh.mathur@oportun.com",
    "release_name": "RC_v21.8",
    "target_env": "STAGE-1"
  }
}