{
    "apps": {
        "api-communication": "b1304",
        "api-data-service": "b1290",
        "api-loan-app": "b2999",
        "api-verification": "b2520",
        "appdist": "ignore",
        "auth-server-collections": "b32",
        "auth-server-operations": "b32",
        "auth-server-stores": "b32",
        "auth-server-zeus-admin": "b32",
        "batch": "ignore",
        "ccos": "ignore",
        "cis": "b1153",
        "client-service": "b582",
        "collection-service": "b393",
        "communication-jobs": "ignore",
        "cts": "b75",
        "cts-jobs": "ignore",
        "db-updater": "b41",
        "docmosis": "b432",
        "documentos": "b1670",
        "documents-engine": "b2594",
        "documents-engine-jobs": "ignore",
        "egeon": "b31",
        "financial-account-service": "ignore",
        "fraud": "b1547",
        "gateway": "b267",
        "jobs-folder": "ignore",
        "lead-source-system": "b1212",
        "lss-lead-import": "ignore",
        "movil": "b974",
        "ng-ccos": "ignore",
        "ng-collections": "b174",
        "ng-kiosk": "b14",
        "ng-operations": "b203",
        "ng-stores": "b265",
        "ng-zeus-admin": "b66",
        "payment-service": "b342",
        "pf": "b4635",
        "pf-api": "b4635",
        "presentacion": "b74",
        "pricing-engine": "b120",
        "progressfin-services": "b100",
        "reportes": "b206",
        "risk": "b2427",
        "risk-aggregate-producer": "ignore",
        "self-service": "b74",
        "sip": "b865",
        "sip-frontend": "b865",
        "template-engine": "ignore",
        "user-service": "b276",
        "mfh-service": "ignore"
    },
    "db": {
        "bootstrap": [],
        "migrate": []
    },
    "meta": {
        "release_manager": "WFerreira.admin@oportun.com",
        "release_name": "07.02.2019",
        "target_env": "TRAIN2"
    }
}
